<?xml version="1.0" standalone="no"?>
<!DOCTYPE svg PUBLIC "-//W3C//DTD SVG 20010904//EN"
 "http://www.w3.org/TR/2001/REC-SVG-20010904/DTD/svg10.dtd">
<svg version="1.0" xmlns="http://www.w3.org/2000/svg"
 width="260.000000pt" height="260.000000pt" viewBox="0 0 260.000000 260.000000"
 preserveAspectRatio="xMidYMid meet">
<metadata>
Created by potrace 1.11, written by Peter Selinger 2001-2013
</metadata>
<g transform="translate(0.000000,260.000000) scale(0.100000,-0.100000)"
fill="#000000" stroke="none">
<path d="M1069 2043 c-5 -16 -14 -41 -20 -58 -6 -16 -15 -39 -19 -50 -5 -11
-41 -108 -80 -215 -39 -107 -79 -217 -90 -245 -10 -27 -29 -79 -43 -115 -13
-36 -38 -101 -54 -145 -17 -44 -61 -163 -98 -265 -37 -102 -80 -220 -96 -263
l-29 -77 189 0 189 0 41 122 c23 68 44 129 46 136 3 9 72 12 298 12 l295 0 36
-107 c20 -60 42 -120 48 -135 l10 -28 189 0 189 0 -19 47 c-10 27 -69 185
-130 353 -62 168 -116 314 -121 325 -5 11 -65 173 -134 360 -69 187 -128 348
-131 358 -7 15 -27 17 -231 17 l-224 0 -11 -27z m335 -603 c46 -135 87 -255
90 -267 l7 -23 -195 0 c-108 0 -196 4 -196 8 0 9 37 118 134 396 31 88 56 162
57 165 1 13 22 -44 103 -279z"/>
</g>
</svg>
